654,Shiori Saijou
675,Syouna Hayama
2,Ai Naoshima
648,Serina Hayakawa
60,Anri
306,Maho Ichikawa
698,Urumi Narumi
629,Satomi Suzuki
309,Mai Hagiwara
404,Mimi Asuka
205,Hikari Matsushita
529,Reiko Kobayakawa
126,Cosplay Chouko
110,Chieri Aoyama
489,Non Suzumiya
163,Gachinco Asuha
660,Shoko Takahashi
108,Buruma Aoi
407,Minami Aida
97,Ayane Suzukawa
557,Riko Aihara
385,Miho Satsuki
383,Miho Ichiki
747,Yumi Maeda
627,Satom Miyake
355,Masako Umemiya
482,Natsumi Aoi
554,Rika Hashimoto
683,Tomoka Nozawa
248,Kana Honda
496,Nuko Meguro
7,Aika Yumeno
526,Rei Narumi
507,Pornograph Maaya
615,Sana Tokisaki
492,Nozomi Aiuchi
714,Yua Ariga
766,Yuria Shima
751,Yumiko Shaka
235,Iori Tsukimoto
128,Cosplay Mana
131,Cosplay Nagisa
537,Remi Hosisaki
534,Reira Aisaki
4,Ai Uehara
29,Amateur Ema
154,Fumie Okutani
425,Misaki Hanamura
10,Aino Yoshioka
321,Maki Takei
264,Kaori Wakaba
700,Waka Oshiro
616,Sana Uematsu
565,Rin Nonomiya
395,Miku Abeno
124,Cosplay Ayumi
354,Masaki Chono
286,Konoha
301,Lemon Mizutama
585,Risa Yoshiki
536,Reira Uehara
227,Honoka Asada
42,Amateur Moe
691,Toshimi Fukizono
66,Aria Misaki
391,Mikan Aoyama
240,Juno
98,Ayano Washizu
500,Orihime Sana
101,Ayumi Kimino
19,Akiho Yoshizawa
573,Rinka
200,Haruna Ikoma
325,Makoto Toda
255,Kanako Iioka
132,Cosplay Nasan
434,Miyuki Koizumi
270,Karina Mikami
662,Silkypico Mio
561,Rin Higurashi
295,Kumi Tokunaga
138,Double Cuties
167,Gachinco Hotaru
750,Yumiko Fujita
185,Garo Dazay
123,Cosplay Ayane
84,Aya Kiguchi
158,Fuyumi Iizuka
506,Pornograph Akari
172,Gachinco Reika
89,Ayaka Aoi
250,Kana Orita
332,Manaka Miyano
223,Hiyori Matsui
611,Sana Anju
260,Kaori Ishii
257,Kanami Isozaki
745,Yuma Asami
687,Tomomi Matsunaga
418,Mirei Aika
346,Marie Konishi
350,Marina Shiraishi
67,Arina Hashimoto
86,Aya Nagase
226,Honami Natsukawa
614,Sana Mizuhara
503,Oshioki Chihiro
315,Maika Misaki
612,Sana Anzyu
781,Yuuri Morishita
566,Rin Yokowama
416,Mio Oshima
281,Kirara Asuka
701,Wakaba Onoue
228,Honoka Uesaka
217,Hitomi Kitamura
231,Ichika Kimura
348,Mariko Shirosaki
674,Suzumi Mano
733,Yukari
144,Emiri Nagayama
689,Tomomi Shimasaki
628,Satomi Nagayama
514,Ran Niyama
259,Kanon Suzuki
666,Sora Shiina
169,Gachinco Nana
222,Hiyo Nishizuku
439,Mizuki Akai
702,Wakana Mizuki
473,Naomi Kasuga
116,Chisa Nozawa
414,Mio Fujisawa
117,Chisaki Aihara
504,Oshioki Mizuki
47,Amateur Renna
210,Hina Maeda
479,Natsuko Miyamoto
145,Eri Hosaka
488,Nodoka Sakura
718,Yui Kasugano
291,Kumi Asa
588,Rui Saotome
453,Nagisa Kazami
363,Mayu Nozomi
262,Kaori Shiraishi
357,Maya Sakamoto
776,Yuuka Nagata
43,Amateur Nanako
421,Misa Kamimura
230,Ichigo Aoi
208,Hikaru Shiina
319,Maki Hojo
736,Yukari Yamashita Saki Shina Saki Tahara
712,Yu Shiraishi
723,Yui Nakashima
180,Gachinco Yurie
12,Airi Sakuragi
299,Kyoko Yasui
277,Kie Kitano
517,Realstreetangels Ren
480,Natsuko Tatsumi
30,Amateur Erina
433,Miyu Watanabe
14,Akane Watase
481,Natsumi Aihara
676,Takako Kitahara
125,Cosplay Chacha
653,Shion Takeuchi
724,Yui Niiyama
181,Garea Ayuna
511,Ramu
422,Misa Shibata
652,Shinobu Sagara
155,Fumiko Takigawa
406,Mina Watanabe
386,Miina Kanno
183,Garea Mayue
725,Yui Nishikawa
366,Mayuka Hamana
478,Natsuko Mishima
201,Haruna Kawakita
62,Anri Sugisaki Yuna Takeuchi
424,Misaki
382,Miho Arai
641,Sayaka Yuuki
327,Mami Toda
99,Ayuko Shinagawa
459,Namiko Hara
560,Riku Minato
508,Pornograph Rikako
549,Rie Saito
402,Mikuni Saran
284,Kogal Yuki
663,Silkypico Mizuki
182,Garea Hirari
18,Aki Hoshino
268,Karin Aizawa
16,Akari Asayiri
541,Rena
375,Meguri
273,Kazuko Shirai
381,Midori Arimura
207,Hikaru Kirameki
708,Yoko Takeno
540,Ren Azumi
715,Yua Mikami
276,Keina Sumitomo
626,Sara Yurikawa
143,Emiko Shikada
587,Rora Okihara
213,Hinata Tachibana
509,Race Queens
147,Erika Natukawa
70,Arisa Nakano
502,Oshioki Ayumi
475,Natsuki Fujii
477,Natsuki Yoshihara
465,Nanako Hayama
778,Yuuna Katase
623,Saori Yoshikawa
624,Sara Ayano
161,Gachinco Ami
142,Emiko Okajima
522,Rei Haruka
486,Necoco
470,Nanami Wakase
26,Amateur Azumi
428,Mitsuki Ringo
608,Sakura Sato
390,Mika Takasaki
127,Cosplay Enako
423,Misae Fukumoto
396,Miku Airi
22,Amateur Ai
9,Aino Kishi
11,Airi Nagasaku
532,Reina Mitsuki
254,Kanade Otoha
569,Rina Koda
303,Madoka Katsuragi
450,Nagiko Tono
597,Ryu Enami
748,Yumi Ono
717,Yui Kasuga
442,Momoka
221,Hitomi Takiguchi
719,Yui Kawakita
282,Kirinn
752,Yuna Akiyama
603,Saki Kozakura
528,Reika Mizuki
360,Mayu Himeno
633,Saya Takasawa
263,Kaori Sugiura
716,Yui Hatano
397,Miku Ohashi
188,Haruhi Kamiya
102,Ayumi Takanashi
119,Chiyo Koma
218,Hitomi Okamoto
312,Mai Kinoshita
574,Rinka Ohnishi
166,Gachinco Hitoe
613,Sana Imanaga
556,Rika Yamasaki
764,Yuria Haga
398,Miku Okada
589,Ruka Kanae
135,Cosplay Suzu
179,Gachinco Yume
174,Gachinco Riku
490,Noriko Ashiya
316,Maiko Saegimi
408,Minami Kitagawa
647,Seria Hyuga
466,Nanako Mizuno
249,Kana Matsui
310,Mai Hyuga
40,Amateur Mineko
461,Nana Nanaumi
209,Hikaru Shiina Leo Saionji
356,Maya Kawamura
5,Aika
599,Sae Nishino
634,Sayaka Amami
225,Honami Miyashita
572,Rina Yamamoto
318,Maki Hayase
35,Amateur Maako
468,Nanami Kuromi
184,Garea Yuna
93,Ayaka Tomoda
211,Hina Sakuragi
436,Miyuu Asakura
38,Amateur Mia
241,Juri Hoshino
37,Amateur Mayu
505,Oshioki Runa
285,Kogal Yuma
340,Maomi Nagasawa
550,Rie Sakuma
243,Kaede Fuyutsukie
555,Rika Nanase
232,Inori Nakamura
527,Rei Shishido
233,Iori Miduki
405,Mimi Girls
499,Orihime Ayumi
471,Nao Shiraishi
311,Mai Ito
392,Miki Hanamoto
780,Yuuri Mizukawa
432,Miyu Kanzaki
584,Risa Yamamoto
269,Karin Nishino
420,Miri Hanai
438,Mizuki
170,Gachinco Natsumi
317,Maki Akimoto
234,Iori Mochizuki
214,Hiroka Mochida
519,Realstreetangels Tsubasa
192,Haruka Kasumi
39,Amateur Miho
296,Kurea Asuka
279,Kimono Ayano
331,Mana Tanaka
596,Ryoko Tanaka
36,Amateur Mako
688,Tomomi Nonomura
739,Yuki Nanase
8,Aimi Yoshikawa
437,Mizuho Shiraishi
659,Shoko Aota
570,Rina Koike
45,Amateur Nene
777,Yuuka Sakuragi
242,Juri Matsuazka
76,Asuka Hoshimi
334,Manami Seki
545,Reon Otowa
452,Nagisa Aoi
258,Kanon Hokawa
195,Haruka Morimura
444,Momoka Ohashi
551,Rie Tachikawa
672,Suzu Ichinose
657,Shizuka Mizutani
728,Yui Takahashi
635,Sayaka Amano
476,Natsuki Higurashi
658,Shizuku Hasegawa
643,Scute Hitomi
349,Marina Matsumoto
290,Kozue Sugihara
435,Miyuri Tabe
410,Minori Yamaoka
458,Nami Matsuoka
530,Reina Matsui
491,Noriko Kijima
148,Erin Tono
320,Maki Hoshikawa
191,Haruka Itoh
244,Kaede Matsushima
136,Cosplay Yuma
463,Nana Nishino
619,Saori Aine
548,Rie Matsuoka
6,Aika Tono
775,Yuuka Matsushima
193,Haruka Momoi
515,Realstreetangels Aika
494,Nozomi Nishiyama
13,Akane Osaki
668,Sumire Kijima
283,Kogal Nami
71,Arisu Suzuki
575,Rino Imazato
362,Mayu Kurume
159,Gachico Harumi
190,Haruka Inoue
364,Mayu Takagi
501,Orii Azuma
682,Tokyohot Party Sex
665,Sora Aoi
253,Kana Yuuki
239,Junna Kojima
59,Anna Miyazaki
173,Gachinco Riko
219,Hitomi Oki
20,Akira Mizuki
604,Saki Shiina
326,Mami Aizawa
288,Kotone Amamiya
307,Mai Aida
685,Tomoko Akiyoshi
178,Gachinco Sonoko
64,Aoi Aihara
753,Yuna Kimino
642,Sayuri Kanzaki
298,Kyoko
564,Rin Kawai
347,Marika Kuroki
389,Mika Matsushima
709,You Aizawa
464,Nana Satonaka Kurumi Aoi
741,Yukina Momoyama
487,Newyear Fuck
387,Miina Kotani
693,Tsubasa Okina
100,Ayumi Hasegawa
352,Mary Jane Lee
330,Mana Sasaki
337,Mao Itoh
176,Gachinco Seira
493,Nozomi Kawasaki
457,Nami Itoshino
409,Minami Kojima
679,Tamaki
543,Rena Sasaki
732,Yuka Yamazaki
669,Sumire Matsu
139,Double Girls
684,Tomoka Sakurai
582,Risa Misaki
252,Kana Yume
622,Saori Mizusawa
31,Amateur Fumika
523,Rei Kitajima
374,Megumi Suzumoto
215,Hiroko Aoba
344,Maria Ozawa
673,Suzuka Ishikawa
525,Rei Momoi
61,Anri Sugihara
592,Rurika Ishihara
694,Tsubomi
256,Kanako Mitsui
23,Amateur Aoi
33,Amateur Kazuho
104,Azusa Arai
216,Hiromi Aoyama
121,Cosplay Akimi
576,Rino Katayama
246,Kaho Hagiwara
107,Bejean Kurara
456,Nami Fujimura
280,Kimono Rie
48,Amateur Rika
212,Hina Sato
373,Megumi Shino
294,Kumi Shinoda
368,Mayuko Tsuchiya
729,Yui Uehara
749,Yumi Tanaka
175,Gachinco Sana
68,Arisa
697,Tsuna Kimura
670,Summer School Girl
655,Shiori Yamana
81,Asuka Shima
72,Asami Imamura
160,Gachinco Ai
162,Gachinco Asaka
75,Asuka
333,Manami Hashimoto
266,Kaoruko Wakaba
113,Chika Tono
646,Seira Sato
194,Haruka Momokawa
206,Hikari Seno
343,Mari Touno
106,Azusa Nagasawa
620,Saori Ikuta
73,Asami Niikura
738,Yuki Mizutani
105,Azusa Endo
427,Misuzu Tachibana
171,Gachinco Non
609,Sakura Uehara
114,Chika Yamada
606,Sakura Mitani
90,Ayaka Kojima
44,Amateur Natsuho
17,Akari Misaki
115,Chiri Kinoshita
430,Miu Ayano
558,Riko Miyase
168,Gachinco Miharu
203,Hidemi Takayanagi
199,Haruna Ayane
358,Mayo Usami
447,Nae Endo
727,Yui Okada
129,Cosplay Mike
535,Reira Amane
388,Mika Date
328,Mana Nagisa
415,Mio Kuraki
25,Amateur Ayaka
559,Riko Takakura
141,Emi Koike
735,Yukari Shimizu
133,Cosplay Natsuki
743,Yuko Kohinata
705,Yhuka Yukiduki
412,Mint Haneoka
600,Saki Aibu
52,Amateur Shouko
581,Risa Kobayashi
639,Sayaka Tomaru
640,Sayaka Tsuji
756,Yura Nanami
621,Saori Kamiya
533,Reina Omori
372,Megumi Haruka
699,Ururu Nanami
74,Asami Uemura
583,Risa Murakami
632,Saya Tachibana
690,Tomoyo Itano
49,Amateur Ririka
146,Eri Kamei
680,Toa Mizuse
483,Natsumi Hinata
109,Chieko Ito
289,Kotone Kuroki
746,Yumi Asakura
772,Yuu Katayama
220,Hitomi Shinohara
413,Mio Ando
55,Ameri Ichinose
77,Asuka Ichinose
518,Realstreetangels Sara
455,Naho Wakikawa
120,Climax Harumi
602,Saki Kouzai
83,Aya Ishiguro
34,Amateur Kozue
149,Erina Asano
664,Sofia Takigawa
552,Riisa Kashiwagi
485,Nazuna Chitose
377,Mei Matsumoto
762,Yuria Aida
730,Yui Yamashita
429,Miu
379,Meri Makuma
760,Yuri Shibuya
726,Yui Oba
361,Mayu Hoshina
722,Yui Misaki
88,Aya Ueda
237,Jessica Kizaki
27,Amateur Chiemi
594,Ryo Tsujimoto
710,You Asakura
336,Manami Suzuki
631,Saya Niiyama
1,Ai Miyaji
498,Ol Mizuki
293,Kumi Kobashi
91,Ayaka Shintani
359,Mayu Fujimoto
510,Rame Mou
15,Akari Asagiri
579,Risa Enomoto
644,Scute Mami
122,Cosplay Akino
580,Risa Fujimoto
197,Harumi Tachibana
103,Azumi
771,Yuu K
782,Yuzuki Akiyama
85,Aya Kozuki
247,Kaho Shibuya
96,Ayane Shinoda
137,Desktop Garden
54,Amateur Yurie
586,Ritsuko Tachibana
484,Natsumi Tomosaka
371,Megu Kamijo
287,Kotomi Asakura
380,Michi Sugita
87,Aya Takigawa
495,Nozomi Sasaki
80,Asuka Mita
50,Amateur Sakura
198,Haruna Asahi
300,Kyouko Maki
563,Rin Kashiwagi
636,Sayaka Isoyama
186,Hana Sakura
610,Sakuya Izayoi
562,Rin Hitomi
338,Mao Saito
467,Nanami Ikeuchi
118,Chisato Morikawa
707,Yoko Kasahara
443,Momoka Hatsune
451,Nagisa Aiba
151,Erina Mano
578,Ririno Oomiya
445,Monami Yuki
661,Silkypico Kotono
765,Yuria Mano
767,Yurika Miyaji
304,Mahiro Azusa
638,Sayaka Taniguchi
758,Yuri Kijima
547,Ria Yuka
314,Mai Shirosaki
275,Kei Mizushima
656,Shizuka
472,Nao Suzuhira
704,Yayoi Doujima
546,Ria Sakurai
769,Yuta Oono
590,Ruka Maejima
696,Tsukushi
595,Ryoko Takeuchi
692,Tsubasa Amami
24,Amateur Ari
165,Gachinco Hina
265,Kaori Yamazaki
446,Mutsumi Kashiwagi
460,Nana Hoshino
474,Narumi Ayase
618,Sanae Momoi
426,Misato Satsuki
678,Takeuchi Nozomi
82,Asuka Yuzaki
605,Sakura Aida
759,Yuri Sakura
401,Mikuni Maisaki
3,Ai Takagi
598,Sadako Miyashita
568,Rina Kato
779,Yuuri Hozumi
512,Ramu Nagatsuki
607,Sakura Ninomiya
577,Rino Sasamori
378,Meri Kanami
744,Yuko Okada
521,Rei Furuse
305,Maho Hanamura
462,Nana Ninomiya
157,Fuwari
542,Rena Momose
335,Manami Shindo
399,Miku Tamaru
417,Mion Sonoda
78,Asuka Kirara
720,Yui Komine
236,Izumi Morita
153,Eririka Katagiri
367,Mayuka Kuroda
324,Makoto Ishikawa
681,Tokyo Hot Sex Party
419,Mirei Yokoyama
553,Rika Aiuchi
329,Mana Sakura
95,Ayami
737,Yuki Asakura
671,Suzanne
742,Yukino Sakurazawa
51,Amateur Sanae
400,Miku Wakabayashi
567,Rin Yuzuki
112,Chihiro Asai
274,Kazusa Sato
94,Ayako Yamanaka
46,Amateur Nodoka
768,Yuriko Iwata
711,You Kawana
370,Megu Ayase
187,Haru Takanashi
134,Cosplay Saku
308,Mai Ayane
394,Miki Sunohara
403,Mikuru Shiina
516,Realstreetangels Arisa
469,Nanami Tanishi
302,Lily Yamasaki
164,Gachinco Eri
58,Ann Nanba
454,Nagomi
651,Shimako Kanai
601,Saki Ichihashi
79,Asuka Kurea
754,Yuna Wakui
140,Emi Akizawa
271,Kasumi Tachibana
53,Amateur Sumire
761,Yuria
224,Hiyori Mitsuhashi
713,Yua Ando
56,Ami Sakurai
92,Ayaka Takigawa
524,Rei Mizuna
695,Tsukasa Aoi
341,Mari Hibino
278,Kii Kaneko
677,Takami Kishibata
649,Shiho Miyama
111,Chihiro Akino
449,Nagiko Miyama
267,Karen Natsuhara
686,Tomoko Okada
539,Remi Ohara
202,Hatsumi Kawano
630,Saya Aika Marie Adachi
440,Mizuki Horii
41,Amateur Misa
32,Amateur Hitomi
393,Miki Sakai
384,Miho Maeshima
57,Amusement Girls
770,Yuu Ayanami
297,Kurea Hasumi
411,Minori Yoshida
721,Yui Kyono
365,Mayuka Akimoto
238,Juna Oshima
734,Yukari Nishino
448,Naenan Z
65,Aoi Sano
755,Yuno Sakurai
369,Megu Aoyama
538,Remi Kataoka
531,Reina Matsushima
322,Makiko Sumida
353,Maryou Chouzuki
703,Yajima Maimi
189,Haruka Akina
544,Rena Sawai
774,Yuuka Konomi
757,Yuri Kasai
69,Arisa Kato
617,Sanae Hanasaki
150,Erina Fujisaki
731,Yuka Aoki
156,Fuuka Takanashi
513,Ran Higurashi
763,Yuria Asina
130,Cosplay Mimi
345,Maria Shiina
204,Hikari Kasumi
272,Kawaii Hinano
441,Mizusa Minami
593,Ruriko Hirai
177,Gachinco Senri
21,Akira Saijo
645,Scute Rin
571,Rina Wakui
773,Yuuka Koizumi
740,Yuki Natsume
251,Kana Shimada
667,Sumire Enomoto
261,Kaori Maeda
342,Mari Kurosawa
431,Miwa Kuze
351,Mariya Goto
313,Mai Shiraishi
520,Realstreetangels Yuuki
376,Mei Haruka
229,Honoka Umesaki
28,Amateur Chiwako
152,Erina Sugiyama
323,Makoto Asami
63,Aoba Igarashi
637,Sayaka Takashiro
339,Mao Suzuki
196,Haruka Sasano
591,Runa Akatsuki
625,Sara Tusbaki
245,Kaede Niiyama
497,Office Lady
292,Kumi Kasuga
706,Yoko Fuyutsuki
